\contentsline {part}{I\hspace {1em}Primera parte}{3}
\contentsline {chapter}{\numberline {1}El primer cap\IeC {\'\i }tulo}{5}
\contentsline {section}{\numberline {1.1}Primer cap\IeC {\'\i }tulo - Secci\IeC {\'o}n primera}{5}
\contentsline {section}{\numberline {1.2}Primer cap\IeC {\'\i }tulo - Secci\IeC {\'o}n segunda}{5}
\contentsline {subsection}{\numberline {1.2.1}Primer cap\IeC {\'\i }tulo - Secci\IeC {\'o}n segunda - Subsecc1}{5}
\contentsline {subsubsection}{Primer cap\IeC {\'\i }tulo - Secci\IeC {\'o}n segunda - Subsubsecc1}{5}
\contentsline {paragraph}{Primer cap\IeC {\'\i }tulo - Secci\IeC {\'o}n segunda - P\IeC {\'a}rrafo}{5}
\contentsline {subparagraph}{Primer cap\IeC {\'\i }tulo - Secci\IeC {\'o}n segunda - Subp\IeC {\'a}rrafo}{6}
\contentsline {section}{\numberline {1.3}Primer cap\IeC {\'\i }tulo - Secci\IeC {\'o}n tercera}{6}
