\relax 
\@writefile{toc}{\contentsline {section}{\numberline {1}Espacios verticales}{1}}
\@writefile{toc}{\contentsline {section}{\numberline {2}P\IeC {\'a}rrafo}{1}}
\@writefile{toc}{\contentsline {subsection}{\numberline {2.1}Centrado}{1}}
\@writefile{toc}{\contentsline {subsection}{\numberline {2.2}Derecha}{1}}
\@writefile{toc}{\contentsline {subsection}{\numberline {2.3}Izquierda}{1}}
