\relax 
\@writefile{toc}{\contentsline {section}{\numberline {1}Modo matem\IeC {\'a}tico b\IeC {\'a}sico}{1}}
\@writefile{toc}{\contentsline {section}{\numberline {2}ra\IeC {\'\i }ces}{1}}
\@writefile{toc}{\contentsline {section}{\numberline {3}Ejercicio de integrales}{2}}
\@writefile{toc}{\contentsline {section}{\numberline {4}Tablas en modo matem\IeC {\'a}tico}{2}}
\@writefile{toc}{\contentsline {section}{\numberline {5}Tablas en modo texto}{2}}
\@writefile{toc}{\contentsline {section}{\numberline {6}Agrupaci\IeC {\'o}n en vertical}{3}}
